{
    "name": "Nextgen",
    "uri": "http://www.slidedeck.com/",
    "sources": [
        "posts",
        "gplus",
        "rss",
        "instagram",
        "dribbble",
        "gplusimages",
        "flickr",
        "youtube",
        "dailymotion",
        "vimeo",
        "fivehundredpixels",
        "pinterest",
        "facebook",
        "twitter",
        "nextgengallery",
        "custom"
    ],
    "author": "SlideDeck",
    "author_uri": "http://www.slidedeck.com/",
    "contributors": [
        "orville",
        "oriontimbers",
        "kynatro"
    ],
    "description": "Fashion Lens",
    "version": "1.0",
    "sizes": {
        "small": {
            "label": "Small",
            "width": 300,
            "height": 200
        },
        "medium": {
            "label": "Medium",
            "width": 500,
            "height": 300
        },
        "large": {
            "label": "Large",
            "width": 850,
            "height": 500
        }
    },
    "variations": {
    	"light": "Light",
        "dark": "Dark"
    },
    "fonts": {
        "lato": {
            "label": "Lato",
            "stack": "Lato, sans-serif",
            "import": "//fonts.googleapis.com/css?family=Lato:400,300,700,300italic",
            "weight": "400"
        }
    },
    "default_nav_styles": false
}
